<define-tag pagetitle>DLA-936-1 libtirpc</define-tag>
<define-tag report_date>2017-5-10</define-tag>
<define-tag secrefs>CVE-2017-8779 Bug#861834</define-tag>
<define-tag packages>libtirpc</define-tag>
<define-tag isvulnerable>yes</define-tag>
<define-tag fixed>yes</define-tag>
<define-tag fixed-section>no</define-tag>

#use wml::debian::security

