<define-tag pagetitle>DLA-795-1 tiff</define-tag>
<define-tag report_date>2017-1-23</define-tag>
<define-tag secrefs>CVE-2016-3622 CVE-2016-3623 CVE-2016-3624 CVE-2016-3945 CVE-2016-3990 CVE-2016-9533 CVE-2016-9534 CVE-2016-9535 CVE-2016-9536 CVE-2016-9537 CVE-2016-9538 CVE-2016-9540 CVE-2016-10092 CVE-2016-10093 CVE-2017-5225 Bug#846837 Bug#820365 Bug#836570 Bug#851297</define-tag>
<define-tag packages>tiff</define-tag>
<define-tag isvulnerable>yes</define-tag>
<define-tag fixed>yes</define-tag>
<define-tag fixed-section>no</define-tag>

#use wml::debian::security

