<define-tag pagetitle>DLA-1127-1 sam2p</define-tag>
<define-tag report_date>2017-10-8</define-tag>
<define-tag secrefs>CVE-2017-14628 CVE-2017-14629 CVE-2017-14630 CVE-2017-14631 CVE-2017-14636 CVE-2017-14637</define-tag>
<define-tag packages>sam2p</define-tag>
<define-tag isvulnerable>yes</define-tag>
<define-tag fixed>yes</define-tag>
<define-tag fixed-section>no</define-tag>

#use wml::debian::security

