<define-tag pagetitle>DLA-1365-1 drupal7</define-tag>
<define-tag report_date>2018-4-26</define-tag>
<define-tag secrefs>CVE-2018-7602 Bug#895778</define-tag>
<define-tag packages>drupal7</define-tag>
<define-tag isvulnerable>yes</define-tag>
<define-tag fixed>yes</define-tag>
<define-tag fixed-section>no</define-tag>

#use wml::debian::security

