<define-tag pagetitle>DLA-1548-1 libssh</define-tag>
<define-tag report_date>2018-10-18</define-tag>
<define-tag secrefs>CVE-2018-10933 Bug#911149</define-tag>
<define-tag packages>libssh</define-tag>
<define-tag isvulnerable>yes</define-tag>
<define-tag fixed>yes</define-tag>
<define-tag fixed-section>no</define-tag>

#use wml::debian::security

