<define-tag pagetitle>DLA-1757-1 cacti</define-tag>
<define-tag report_date>2019-04-16</define-tag>
<define-tag secrefs>CVE-2019-11025</define-tag>
<define-tag packages>cacti</define-tag>
<define-tag isvulnerable>yes</define-tag>
<define-tag fixed>yes</define-tag>
<define-tag fixed-section>no</define-tag>

#use wml::debian::security

