<define-tag pagetitle>DLA-732-1 monit</define-tag>
<define-tag report_date>2016-12-2</define-tag>
<define-tag secrefs>CVE-2016-7067</define-tag>
<define-tag packages>monit</define-tag>
<define-tag isvulnerable>yes</define-tag>
<define-tag fixed>yes</define-tag>
<define-tag fixed-section>no</define-tag>

#use wml::debian::security

