<define-tag pagetitle>DLA-710-1 akonadi</define-tag>
<define-tag report_date>2016-11-17</define-tag>
<define-tag secrefs>Bug#843534</define-tag>
<define-tag packages>akonadi</define-tag>
<define-tag isvulnerable>yes</define-tag>
<define-tag fixed>yes</define-tag>
<define-tag fixed-section>no</define-tag>

#use wml::debian::security

