<define-tag pagetitle>DLA-688-1 cairo</define-tag>
<define-tag report_date>2016-10-28</define-tag>
<define-tag secrefs>CVE-2016-9082 Bug##842289</define-tag>
<define-tag packages>cairo</define-tag>
<define-tag isvulnerable>yes</define-tag>
<define-tag fixed>yes</define-tag>
<define-tag fixed-section>no</define-tag>

#use wml::debian::security

