<define-tag pagetitle>DLA-571-1 xen</define-tag>
<define-tag report_date>2016-7-30</define-tag>
<define-tag secrefs>CVE-2014-3672 CVE-2016-3158 CVE-2016-3159 CVE-2016-3710 CVE-2016-3712 CVE-2016-3960 CVE-2016-4480 CVE-2016-6258</define-tag>
<define-tag packages>xen</define-tag>
<define-tag isvulnerable>yes</define-tag>
<define-tag fixed>yes</define-tag>
<define-tag fixed-section>no</define-tag>

#use wml::debian::security

